[
    {
        "code": "hideTabs",
        "name": "Hide Tabs",
        "tooltip": "Hide the tabs at the top of the destination",
        "input_type": "checkbox",
        "default": false
    },
    {
        "code": "hideDots",
        "name": "Hide Dots",
        "tooltip": "Hide the dots at the bottom of the destination",
        "input_type": "checkbox",
        "default": false
    },
    {
        "code": "hideArrows",
        "name": "Hide Arrows",
        "tooltip": "Hide the clickable arrow next and prev",
        "input_type": "checkbox",
        "default": false
    },
    {
        "code": "setInterval",
        "name": "Slides Timer",
        "tooltip": "Set the slides timer in seconds.  With value 0 you can disable it",
        "input_type": "number",
        "default": 6
    }
]
